{
	"info": {
		"_postman_id": "70459b41-3788-43d6-aeee-41291e04bd75",
		"name": "NoSQL 2020",
		"schema": "https://schema.getpostman.com/json/collection/v2.1.0/collection.json"
	},
	"item": [
		{
			"name": "comments",
			"item": [
				{
					"name": "get user comments",
					"request": {
						"method": "GET",
						"header": [],
						"url": {
							"raw": "http://localhost:3000/users/:email/comments",
							"protocol": "http",
							"host": [
								"localhost"
							],
							"port": "3000",
							"path": [
								"users",
								":email",
								"comments"
							],
							"variable": [
								{
									"key": "email",
									"value": "hola@mail.com"
								}
							]
						}
					},
					"response": []
				},
				{
					"name": "get comment by id",
					"request": {
						"method": "GET",
						"header": [],
						"url": {
							"raw": "http://localhost:3000/comments/:commentId/",
							"protocol": "http",
							"host": [
								"localhost"
							],
							"port": "3000",
							"path": [
								"comments",
								":commentId",
								""
							],
							"variable": [
								{
									"key": "commentId",
									"value": "5f95b76d0c02e71a6a831e5c"
								}
							]
						}
					},
					"response": []
				},
				{
					"name": "add user comment",
					"request": {
						"method": "POST",
						"header": [],
						"body": {
							"mode": "raw",
							"raw": "{\n    \"text\": \"hello world\"\n}",
							"options": {
								"raw": {
									"language": "json"
								}
							}
						},
						"url": {
							"raw": "http://localhost:3000/users/:email/comments",
							"protocol": "http",
							"host": [
								"localhost"
							],
							"port": "3000",
							"path": [
								"users",
								":email",
								"comments"
							],
							"variable": [
								{
									"key": "email",
									"value": "hola@mail.com"
								}
							]
						}
					},
					"response": []
				}
			],
			"protocolProfileBehavior": {}
		},
		{
			"name": "users",
			"item": [
				{
					"name": "get users",
					"request": {
						"method": "GET",
						"header": [],
						"url": {
							"raw": "http://localhost:3000/users",
							"protocol": "http",
							"host": [
								"localhost"
							],
							"port": "3000",
							"path": [
								"users"
							]
						}
					},
					"response": []
				},
				{
					"name": "create user",
					"request": {
						"method": "POST",
						"header": [],
						"body": {
							"mode": "raw",
							"raw": "{\n    \"name\": \"prueba\",\n    \"email\" : \"hola@mail.com\" \n}",
							"options": {
								"raw": {
									"language": "json"
								}
							}
						},
						"url": {
							"raw": "http://localhost:3000/users",
							"protocol": "http",
							"host": [
								"localhost"
							],
							"port": "3000",
							"path": [
								"users"
							]
						}
					},
					"response": []
				},
				{
					"name": "get user by email",
					"request": {
						"method": "GET",
						"header": [],
						"url": {
							"raw": "http://localhost:3000/users/:email",
							"protocol": "http",
							"host": [
								"localhost"
							],
							"port": "3000",
							"path": [
								"users",
								":email"
							],
							"variable": [
								{
									"key": "email",
									"value": "hola@mail.com"
								}
							]
						}
					},
					"response": []
				}
			],
			"protocolProfileBehavior": {}
		},
		{
			"name": "reactions",
			"item": [
				{
					"name": "add comment reaction",
					"request": {
						"method": "POST",
						"header": [],
						"body": {
							"mode": "raw",
							"raw": "{\n    \"like\" : true ,\n    \"email\" : \"hola@mail.com\"\n}",
							"options": {
								"raw": {
									"language": "json"
								}
							}
						},
						"url": {
							"raw": "http://localhost:3000/comments/:commentId/reactions",
							"protocol": "http",
							"host": [
								"localhost"
							],
							"port": "3000",
							"path": [
								"comments",
								":commentId",
								"reactions"
							],
							"variable": [
								{
									"key": "commentId",
									"value": "5f95b76d0c02e71a6a831e5c"
								}
							]
						}
					},
					"response": []
				}
			],
			"protocolProfileBehavior": {}
		}
	],
	"protocolProfileBehavior": {}
}